%YAML 1.1
%TAG !u! tag:unity3d.com,2011:
--- !u!114 &11400000
MonoBehaviour:
  m_ObjectHideFlags: 0
  m_CorrespondingSourceObject: {fileID: 0}
  m_PrefabInstance: {fileID: 0}
  m_PrefabAsset: {fileID: 0}
  m_GameObject: {fileID: 0}
  m_Enabled: 1
  m_EditorHideFlags: 0
  m_Script: {fileID: 11500000, guid: e98aa4b58b11e9d4ca9dd8a4bf7bb71d, type: 3}
  m_Name: ScriptGraphState
  m_EditorClassIdentifier: 
  NodesState:
  - scriptName: FirstChapter
    position:
      serializedVersion: 2
      x: 0
      y: 0
      width: 165
      height: 293
