%YAML 1.1
%TAG !u! tag:unity3d.com,2011:
--- !u!1045 &1
EditorBuildSettings:
  m_ObjectHideFlags: 0
  serializedVersion: 2
  m_Scenes:
  - enabled: 0
    path: Assets/Scenes/SampleScene.unity
    guid: 2cda990e2423bbf4892e6590ba056729
  - enabled: 1
    path: Assets/Scenes/menu.unity
    guid: a9a5fad0eec63ad4e96749e31f254cbb
  - enabled: 1
    path: Assets/Scenes/Dungeons/forest.unity
    guid: 6a6ae29b640c7b94397dd4980fcb1717
  - enabled: 1
    path: Assets/Scenes/Empty.unity
    guid: cf58cfb03dcf762498ebe785d92155a7
  - enabled: 0
    path: Assets/Scenes/SampleScene.unity
    guid: 2cda990e2423bbf4892e6590ba056729
  - enabled: 1
    path: Assets/Scenes/Dungeons/forest.unity
    guid: 6a6ae29b640c7b94397dd4980fcb1717
  - enabled: 1
    path: Assets/Scenes/DungeonMenu.unity
    guid: 2f6fae3753e205045a3c339f7bed15a9
  - enabled: 1
    path: Assets/Scenes/Dungeons/room.unity
    guid: 9f15d46bf0a2a5742ba5abb7f80f2594
  m_configObjects:
    com.unity.adaptiveperformance.loader_settings: {fileID: 11400000, guid: 0d3caee98afad5340941b2a2086250a5, type: 2}
    com.unity.adaptiveperformance.samsung.android.provider_settings: {fileID: 11400000, guid: 0fc9b2e109b3b424f84f47861f7c97a3, type: 2}
    com.unity.adaptiveperformance.simulator.provider_settings: {fileID: 11400000, guid: ca399116f91fa7646afdd91667a537af, type: 2}
